Participant,Signature,Consent,EIF
Afghanistan,2000-12-14,2003-09-24,2003-10-24
Albania,2000-12-12,2002-08-21,2003-09-29
Algeria,2000-12-12,2002-10-07,2003-09-29
Andorra,2001-11-11,2011-09-22,2011-10-22
Angola,2000-12-13,2013-04-01,2013-05-01
Antigua and Barbuda,2001-09-26,2002-07-24,2003-09-29
Argentina,2000-12-12,2002-11-19,2003-09-29
Armenia,2001-11-15,2003-07-01,2003-09-29
Australia,2000-12-13,2004-05-27,2004-06-26
Austria,2000-12-12,2004-09-23,2004-10-23
Azerbaijan,2000-12-12,2003-10-30,2003-11-29
Bahamas,2001-04-09,2008-09-26,2008-10-26
Bahrain,,2004-06-07,2004-07-07
Bangladesh,,2011-07-13,2011-08-12
Barbados,2001-09-26,2014-11-11,2014-12-11
Belarus,2000-12-14,2003-06-25,2003-09-29
Belgium,2000-12-12,2004-08-11,2004-09-10
Belize,,2003-09-26,2003-10-26
Benin,2000-12-13,2004-08-30,2004-09-29
Bolivia,2000-12-12,2005-10-10,2005-11-09
Bosnia and Herzegovina,2000-12-12,2002-04-24,2003-09-29
Botswana,2002-04-10,2002-08-29,2003-09-29
Brazil,2000-12-12,2004-01-29,2004-02-28
Brunei Darussalam,,2008-03-25,2008-04-24
Bulgaria,2000-12-13,2001-12-05,2003-09-29
Burkina Faso,2000-12-15,2002-05-15,2003-09-29
Burundi,2000-12-14,2012-05-24,2012-06-23
Cabo Verde,2000-12-13,2004-07-15,2004-08-14
Cambodia,2001-11-11,2005-12-12,2006-01-11
Cameroon,2000-12-13,2006-02-06,2006-03-08
Canada,2000-12-14,2002-05-13,2003-09-29
Central African Republic,,2004-09-14,2004-10-14
Chad,,2009-08-18,2009-09-17
Chile,2000-12-13,2004-11-29,2004-12-29
China,2000-12-12,2003-09-23,2003-10-23
Colombia,2000-12-12,2004-08-04,2004-09-03
Comoros,,2003-09-25,2003-10-25
Congo,2000-12-14,,
Cook Islands,,2004-03-04,2004-04-03
Costa Rica,2001-03-16,2003-07-24,2003-09-29
Croatia,2000-12-12,2003-01-24,2003-09-29
Cuba,2000-12-13,2007-02-09,2007-03-11
Cyprus,2000-12-12,2003-04-22,2003-09-29
Czechia,2000-12-12,2013-09-24,2013-10-24
Côte d'Ivoire,2000-12-15,2012-10-25,2012-11-24
Dem. Rep. Congo,,2005-10-28,2005-11-27
Denmark,2000-12-12,2003-09-30,2003-10-30
Djibouti,,2005-04-20,2005-05-20
Dominica,,2013-05-17,2013-06-16
Dominican Republic,2000-12-13,2006-10-26,2006-11-25
Ecuador,2000-12-13,2002-09-17,2003-09-29
Egypt,2000-12-13,2004-03-05,2004-04-04
El Salvador,2000-12-14,2004-03-18,2004-04-17
Equatorial Guinea,2000-12-14,2003-02-07,2003-09-29
Eritrea,,2014-09-25,2014-10-25
Estonia,2000-12-14,2003-02-10,2003-09-29
Ethiopia,2000-12-14,2007-07-23,2007-08-22
European Community,2000-12-12,2004-05-21,2004-06-20
Fiji,,2017-09-19,2017-10-19
Finland,2000-12-12,2004-02-10,2004-03-11
France,2000-12-12,2002-10-29,2003-09-29
Gabon,,2004-12-15,2005-01-14
Gambia,2000-12-14,2003-05-05,2003-09-29
Georgia,2000-12-13,2006-09-05,2006-10-05
Germany,2000-12-12,2006-06-14,2006-07-14
Ghana,,2012-08-21,2012-09-20
Greece,2000-12-13,2011-01-11,2011-02-10
Grenada,,2004-05-21,2004-06-20
Guatemala,2000-12-12,2003-09-25,2003-10-25
Guinea,,2004-11-09,2004-12-09
Guinea-Bissau,2000-12-14,2007-09-10,2007-10-10
Guyana,,2004-09-14,2004-10-14
Haiti,2000-12-13,2011-04-19,2011-05-19
Holy See,,2012-01-25,2012-02-24
Honduras,2000-12-14,2003-12-02,2004-01-01
Hungary,2000-12-14,2006-12-22,2007-01-21
Iceland,2000-12-13,2010-05-13,2010-06-12
India,2002-12-12,2011-05-05,2011-06-04
Indonesia,2000-12-12,2009-04-20,2009-05-20
Iran,2000-12-12,,
Iraq,,2008-03-17,2008-04-16
Ireland,2000-12-13,2010-06-17,2010-07-17
Israel,2000-12-13,2006-12-27,2007-01-26
Italy,2000-12-12,2006-08-02,2006-09-01
Jamaica,2001-09-26,2003-09-29,2003-10-29
Japan,2000-12-12,2017-07-11,2017-08-10
Jordan,2002-11-26,2009-05-22,2009-06-21
Kazakhstan,2000-12-13,2008-07-31,2008-08-30
Kenya,,2004-06-16,2004-07-16
Kiribati,,2005-09-15,2005-10-15
Kuwait,2000-12-12,2006-05-12,2006-06-11
Kyrgyzstan,2000-12-13,2003-10-02,2003-11-01
Laos,,2003-09-26,2003-10-26
Latvia,2000-12-13,2001-12-07,2003-09-29
Lebanon,2001-12-18,2005-10-05,2005-11-04
Lesotho,2000-12-14,2003-09-24,2003-10-24
Liberia,,2004-09-22,2004-10-22
Libya,2001-11-13,2004-06-18,2004-07-18
Liechtenstein,2000-12-12,2008-02-20,2008-03-21
Lithuania,2000-12-13,2002-05-09,2003-09-29
Luxembourg,2000-12-13,2008-05-12,2008-06-11
Madagascar,2000-12-14,2005-09-15,2005-10-15
Malawi,2000-12-13,2005-03-17,2005-04-16
Malaysia,2002-09-26,2004-09-24,2004-10-24
Maldives,,2013-02-04,2013-03-06
Mali,2000-12-15,2002-04-12,2003-09-29
Malta,2000-12-14,2003-09-24,2003-10-24
Marshall Islands,,2011-06-15,2011-07-15
Mauritania,,2005-07-22,2005-08-21
Mauritius,2000-12-12,2003-04-21,2003-09-29
Mexico,2000-12-13,2003-03-04,2003-09-29
Micronesia,,2004-05-24,2004-06-23
Moldova,2000-12-14,2005-09-16,2005-10-16
Monaco,2000-12-13,2001-06-05,2003-09-29
Mongolia,,2008-06-27,2008-07-27
Montenegro,,2006-10-23,2006-06-03
Morocco,2000-12-13,2002-09-19,2003-09-29
Mozambique,2000-12-15,2006-09-20,2006-10-20
Myanmar,,2004-03-30,2004-04-29
Namibia,2000-12-13,2002-08-16,2003-09-29
Nauru,2001-11-12,2012-07-12,2012-08-11
Nepal,2002-12-12,2011-12-23,2012-01-22
Netherlands,2000-12-12,2004-05-26,2004-06-25
New Zealand,2000-12-14,2002-07-19,2003-09-29
Nicaragua,2000-12-14,2002-09-09,2003-09-29
Niger,2001-08-21,2004-09-30,2004-10-30
Nigeria,2000-12-13,2001-06-28,2003-09-29
Niue,,2012-07-16,2012-08-15
North Korea,,2016-06-17,2016-07-17
North Macedonia,2000-12-12,2005-01-12,2005-02-11
Norway,2000-12-13,2003-09-23,2003-10-23
Oman,,2005-05-13,2005-06-12
Pakistan,2000-12-14,2010-01-13,2010-02-12
Palau,,2019-05-13,2019-06-12
Palestine,,2015-01-02,2015-02-01
Panama,2000-12-13,2004-08-18,2004-09-17
Paraguay,2000-12-12,2004-09-22,2004-10-22
Peru,2000-12-14,2002-01-23,2003-09-29
Philippines,2000-12-14,2002-05-28,2003-09-29
Poland,2000-12-12,2001-11-12,2003-09-29
Portugal,2000-12-12,2004-05-10,2004-06-09
Qatar,,2008-03-10,2008-04-09
Romania,2000-12-14,2002-12-04,2003-09-29
Russia,2000-12-12,2004-05-26,2004-06-25
Rwanda,2000-12-14,2003-09-26,2003-10-26
Samoa,,2014-12-17,2015-01-16
San Marino,2000-12-14,2010-07-20,2010-08-19
Saudi Arabia,2000-12-12,2005-01-18,2005-02-17
Senegal,2000-12-13,2003-10-27,2003-11-26
Serbia,2000-12-12,2001-09-06,2003-09-29
Seychelles,2000-12-12,2003-04-22,2003-09-29
Sierra Leone,2001-11-27,2014-08-12,2014-09-11
Singapore,2000-12-13,2007-08-28,2007-09-27
Slovakia,2000-12-14,2003-12-03,2004-01-02
Slovenia,2000-12-12,2004-05-21,2004-06-20
South Africa,2000-12-14,2004-02-20,2004-03-21
South Korea,2000-12-13,2015-11-05,2015-12-05
Spain,2000-12-13,2002-03-01,2003-09-29
Sri Lanka,2000-12-13,2006-09-22,2006-10-22
St. Kitts and Nevis,2001-11-20,2004-05-21,2004-06-20
St. Lucia,2001-09-26,2013-07-16,2013-08-15
St. Vincent and Grenadines,2002-07-24,2010-10-29,2010-11-28
Sudan,2000-12-15,2004-12-10,2005-01-09
Suriname,,2007-05-25,2007-06-24
Sweden,2000-12-12,2004-04-30,2004-05-30
Switzerland,2000-12-12,2006-10-27,2006-11-26
Syria,2000-12-13,2009-04-08,2009-05-08
São Tomé and Principe,,2006-04-12,2006-05-12
Tajikistan,2000-12-12,2002-07-08,2003-09-29
Tanzania,2000-12-13,2006-05-24,2006-06-23
Thailand,2000-12-13,2013-10-17,2013-11-16
Timor-Leste,,2009-11-09,2009-12-09
Togo,2000-12-12,2004-07-02,2004-08-01
Tonga,,2014-10-03,2014-11-02
Trinidad and Tobago,2001-09-26,2007-11-06,2007-12-06
Tunisia,2000-12-13,2003-06-19,2003-09-29
Turkey,2000-12-13,2003-03-25,2003-09-29
Turkmenistan,,2005-03-28,2005-04-27
Uganda,2000-12-12,2005-03-09,2005-04-08
Ukraine,2000-12-12,2004-05-21,2004-06-20
United Arab Emirates,2002-12-09,2007-05-07,2007-06-06
United Kingdom,2000-12-14,2006-02-09,2006-03-11
United States of America,2000-12-13,2005-11-03,2005-12-03
Uruguay,2000-12-13,2005-03-04,2005-04-03
Uzbekistan,2000-12-13,2003-12-09,2004-01-08
Vanuatu,,2006-01-04,2006-02-03
Venezuela,2000-12-14,2002-05-13,2003-09-29
Vietnam,2000-12-13,2012-06-08,2012-07-08
Yemen,2000-12-15,2010-02-08,2010-03-10
Zambia,,2005-04-24,2005-05-24
Zimbabwe,2000-12-12,2007-12-12,2008-01-11
eSwatini,2000-12-14,2012-09-24,2012-10-24
